^C:\USERS\MICHELLE\DOCUMENTS\VISUAL STUDIO 2010\PROJECTS\EVENTMANAGER\EVENTMANAGER.WEB\ASSOCIATION\REPORTING\ATTENDEEBADGES117.RESX
C:\WINDOWS\ASSEMBLY\PUBPOL112.DAT
^C:\USERS\MICHELLE\DOCUMENTS\VISUAL STUDIO 2010\PROJECTS\EVENTMANAGER\EVENTMANAGER.WEB\ASSOCIATION\REPORTING\ATTENDEEBADGES115.RESX
C:\WINDOWS\SYSTEM32\SPOOL\DRIVERS\COLOR\RSWOP.ICM
C:\WINDOWS\SYSTEM32\SPOOL\DRIVERS\COLOR\SRGB COLOR SPACE PROFILE.ICM
^C:\USERS\MICHELLE\DOCUMENTS\VISUAL STUDIO 2010\PROJECTS\EVENTMANAGER\EVENTMANAGER.WEB\ASSOCIATION\REPORTING\ATTENDEEBADGES.RESX
^C:\USERS\MICHELLE\DOCUMENTS\VISUAL STUDIO 2010\PROJECTS\EVENTMANAGER\EVENTMANAGER.WEB\ASSOCIATION\REPORTING\ATTENDEEBADGES123.RESX
^C:\USERS\MICHELLE\DOCUMENTS\VISUAL STUDIO 2010\PROJECTS\EVENTMANAGER\EVENTMANAGER.WEB\ASSOCIATION\REPORTING\ATTENDEELIST.RESX
^C:\USERS\MICHELLE\DOCUMENTS\VISUAL STUDIO 2010\PROJECTS\EVENTMANAGER\EVENTMANAGER.WEB\ASSOCIATION\REPORTING\ATTENDEEREGISTRATIONS.RESX
^C:\USERS\MICHELLE\DOCUMENTS\VISUAL STUDIO 2010\PROJECTS\EVENTMANAGER\EVENTMANAGER.WEB\ASSOCIATION\REPORTING\ATTENDEEBADGES120.RESX
^C:\USERS\MICHELLE\DOCUMENTS\VISUAL STUDIO 2010\PROJECTS\EVENTMANAGER\EVENTMANAGER.WEB\ASSOCIATION\REPORTING\ATTENDEEBADGES126.RESX
^C:\USERS\MICHELLE\DOCUMENTS\VISUAL STUDIO 2010\PROJECTS\EVENTMANAGER\EVENTMANAGER.WEB\ASSOCIATION\REPORTING\ATTENDEEBADGES128.RESX
^C:\USERS\MICHELLE\DOCUMENTS\VISUAL STUDIO 2010\PROJECTS\EVENTMANAGER\EVENTMANAGER.WEB\ASSOCIATION\REPORTING\ATTENDEEBADGES157.RESX
^C:\USERS\MICHELLE\DOCUMENTS\VISUAL STUDIO 2010\PROJECTS\EVENTMANAGER\EVENTMANAGER.WEB\ASSOCIATION\REPORTING\SPEAKERBADGES157.RESX
^C:\USERS\MICHELLE\DOCUMENTS\VISUAL STUDIO 2010\PROJECTS\EVENTMANAGER\EVENTMANAGER.WEB\ASSOCIATION\REPORTING\EXHIBITORBADGES157.RESX
^C:\USERS\MICHELLE\DOCUMENTS\VISUAL STUDIO 2010\PROJECTS\EVENTMANAGER\EVENTMANAGER.WEB\ASSOCIATION\REPORTING\SPEAKERBADGES126.RESX
^C:\USERS\MICHELLE\DOCUMENTS\VISUAL STUDIO 2010\PROJECTS\EVENTMANAGER\EVENTMANAGER.WEB\ASSOCIATION\REPORTING\EXHIBITORBADGES126.RESX
^C:\USERS\MICHELLE\DOCUMENTS\VISUAL STUDIO 2010\PROJECTS\EVENTMANAGER\EVENTMANAGER.WEB\ASSOCIATION\REPORTING\EVENTSESSIONS.RESX
^C:\USERS\MICHELLE\DOCUMENTS\VISUAL STUDIO 2010\PROJECTS\EVENTMANAGER\EVENTMANAGER.WEB\ASSOCIATION\REPORTING\SPEAKERBADGES123.RESX
^C:\USERS\MICHELLE\DOCUMENTS\VISUAL STUDIO 2010\PROJECTS\EVENTMANAGER\EVENTMANAGER.WEB\ASSOCIATION\REPORTING\EXHIBITORBADGES.RESX
^C:\USERS\MICHELLE\DOCUMENTS\VISUAL STUDIO 2010\PROJECTS\EVENTMANAGER\EVENTMANAGER.WEB\ASSOCIATION\REPORTING\EXHIBITORBADGES123.RESX
^C:\USERS\MICHELLE\DOCUMENTS\VISUAL STUDIO 2010\PROJECTS\EVENTMANAGER\EVENTMANAGER.WEB\ASSOCIATION\REPORTING\EVENTCONTACTSHEET.RESX
^C:\USERS\MICHELLE\DOCUMENTS\VISUAL STUDIO 2010\PROJECTS\EVENTMANAGER\EVENTMANAGER.WEB\ASSOCIATION\REPORTING\EXHIBITORBADGES117.RESX
^C:\USERS\MICHELLE\DOCUMENTS\VISUAL STUDIO 2010\PROJECTS\EVENTMANAGER\EVENTMANAGER.WEB\ASSOCIATION\REPORTING\FACILITYLIST.RESX
^C:\USERS\MICHELLE\DOCUMENTS\VISUAL STUDIO 2010\PROJECTS\EVENTMANAGER\EVENTMANAGER.WEB\ASSOCIATION\REPORTING\SPEAKERBADGES.RESX
